^C:\USERS\CRISTIAN\DESKTOP\FALLING BALLS\FALLING BALLS\BALLS.CPP
/c /Zi /nologo /W3 /WX- /sdl /O2 /Oi /Oy- /GL /D SFML_STATIC /D WIN32 /D NDEBUG /D _CONSOLE /D _LIB /D _UNICODE /D UNICODE /Gm- /EHsc /MD /GS /Gy /fp:precise /Zc:wchar_t /Zc:forScope /Fo"RELEASE\\" /Fd"RELEASE\VC120.PDB" /Gd /TP /analyze- C:\USERS\CRISTIAN\DESKTOP\FALLING BALLS\FALLING BALLS\BALLS.CPP
^C:\USERS\CRISTIAN\DESKTOP\FALLING BALLS\FALLING BALLS\MAIN.CPP
/c /Zi /nologo /W3 /WX- /sdl /O2 /Oi /Oy- /GL /D SFML_STATIC /D WIN32 /D NDEBUG /D _CONSOLE /D _LIB /D _UNICODE /D UNICODE /Gm- /EHsc /MD /GS /Gy /fp:precise /Zc:wchar_t /Zc:forScope /Fo"RELEASE\\" /Fd"RELEASE\VC120.PDB" /Gd /TP /analyze- C:\USERS\CRISTIAN\DESKTOP\FALLING BALLS\FALLING BALLS\MAIN.CPP
^C:\USERS\CRISTIAN\DESKTOP\FALLING BALLS\FALLING BALLS\PLAYER.CPP
/c /Zi /nologo /W3 /WX- /sdl /O2 /Oi /Oy- /GL /D SFML_STATIC /D WIN32 /D NDEBUG /D _CONSOLE /D _LIB /D _UNICODE /D UNICODE /Gm- /EHsc /MD /GS /Gy /fp:precise /Zc:wchar_t /Zc:forScope /Fo"RELEASE\\" /Fd"RELEASE\VC120.PDB" /Gd /TP /analyze- C:\USERS\CRISTIAN\DESKTOP\FALLING BALLS\FALLING BALLS\PLAYER.CPP
^C:\USERS\CRISTIAN\DESKTOP\FALLING BALLS\FALLING BALLS\GAME.CPP
/c /Zi /nologo /W3 /WX- /sdl /O2 /Oi /Oy- /GL /D SFML_STATIC /D WIN32 /D NDEBUG /D _CONSOLE /D _LIB /D _UNICODE /D UNICODE /Gm- /EHsc /MD /GS /Gy /fp:precise /Zc:wchar_t /Zc:forScope /Fo"RELEASE\\" /Fd"RELEASE\VC120.PDB" /Gd /TP /analyze- C:\USERS\CRISTIAN\DESKTOP\FALLING BALLS\FALLING BALLS\GAME.CPP
