^C:\USERS\CRISTIAN\DESKTOP\FALLING BALLS\FALLING BALLS\BALLS.CPP|C:\USERS\CRISTIAN\DESKTOP\FALLING BALLS\FALLING BALLS\GAME.CPP|C:\USERS\CRISTIAN\DESKTOP\FALLING BALLS\FALLING BALLS\MAIN.CPP|C:\USERS\CRISTIAN\DESKTOP\FALLING BALLS\FALLING BALLS\PLAYER.CPP
C:\USERS\CRISTIAN\DESKTOP\FALLING BALLS\FALLING BALLS\RELEASE\VC120.PDB
C:\USERS\CRISTIAN\DESKTOP\FALLING BALLS\FALLING BALLS\RELEASE\PLAYER.OBJ
C:\USERS\CRISTIAN\DESKTOP\FALLING BALLS\FALLING BALLS\RELEASE\MAIN.OBJ
C:\USERS\CRISTIAN\DESKTOP\FALLING BALLS\FALLING BALLS\RELEASE\GAME.OBJ
C:\USERS\CRISTIAN\DESKTOP\FALLING BALLS\FALLING BALLS\RELEASE\BALLS.OBJ
^C:\USERS\CRISTIAN\DESKTOP\FALLING BALLS\FALLING BALLS\BALLS.CPP
C:\USERS\CRISTIAN\DESKTOP\FALLING BALLS\FALLING BALLS\RELEASE\VC120.PDB
^C:\USERS\CRISTIAN\DESKTOP\FALLING BALLS\FALLING BALLS\MAIN.CPP
C:\USERS\CRISTIAN\DESKTOP\FALLING BALLS\FALLING BALLS\RELEASE\VC120.PDB
^C:\USERS\CRISTIAN\DESKTOP\FALLING BALLS\FALLING BALLS\PLAYER.CPP
C:\USERS\CRISTIAN\DESKTOP\FALLING BALLS\FALLING BALLS\RELEASE\VC120.PDB
^C:\USERS\CRISTIAN\DESKTOP\FALLING BALLS\FALLING BALLS\GAME.CPP
C:\USERS\CRISTIAN\DESKTOP\FALLING BALLS\FALLING BALLS\RELEASE\VC120.PDB
C:\USERS\CRISTIAN\DESKTOP\FALLING BALLS\FALLING BALLS\RELEASE\GAME.OBJ
